<?xml version="1.0" encoding="UTF-8"?>
<!DOCTYPE suite SYSTEM "http://testng.org/testng-1.0.dtd">
<suite thread-count="2" guice-stage="DEVELOPMENT" verbose="0" name="Failed suite [Suite1]" parallel="methods">
    <test name="all">
        <groups>
            <run>
                <include name="checkresponsecode"/>
            </run>
        </groups>
        <classes>
            <class name="ClientTest"/>
        </classes>
    </test> <!-- all -->
</suite> <!-- Failed suite [Suite1] -->
